STA 199 - Exam 1 Review
…
distinct()

mpg |>
  select(cty, hwy)

# A tibble: 234 × 2
     cty   hwy
   <int> <int>
 1    18    29
 2    21    29
 3    20    31
 4    21    30
 5    16    26
 6    18    26
 7    18    27
 8    18    26
 9    16    25
10    20    28
# … with 224 more rows

mpg |>
  distinct(cty, hwy)

# A tibble: 78 × 2
     cty   hwy
   <int> <int>
 1    18    29
 2    21    29
 3    20    31
 4    21    30
 5    16    26
 6    18    26
 7    18    27
 8    16    25
 9    20    28
10    19    27
# … with 68 more rows
…
